…
## Use `modelr`

``` r
sim_df_nonconst %>% 
  bootstrap(n = 1000, id = "strap_number") %>% 
  mutate(
    models = map(.x = strap, ~lm(y ~ x, data = .x)),
    results = map(models, broom::tidy)
  ) %>% 
  select(strap_number, results) %>% 
  unnest(results)
```

    ## # A tibble: 2,000 × 6
    ##    strap_number term        estimate std.error statistic   p.value
    ##    <chr>        <chr>          <dbl>     <dbl>     <dbl>     <dbl>
    ##  1 0001         (Intercept)     2.02    0.116       17.4 6.38e- 45
    ##  2 0001         x               2.97    0.0778      38.2 7.23e-106
    ##  3 0002         (Intercept)     1.82    0.0923      19.8 7.82e- 53
    ##  4 0002         x               3.07    0.0659      46.5 1.90e-124
    ##  5 0003         (Intercept)     1.90    0.104       18.2 1.07e- 47
    ##  6 0003         x               3.09    0.0756      40.9 3.22e-112
    ##  7 0004         (Intercept)     2.01    0.114       17.6 2.16e- 45
    ##  8 0004         x               3.15    0.0760      41.5 1.15e-113
    ##  9 0005         (Intercept)     1.89    0.113       16.8 7.93e- 43
    ## 10 0005         x               3.30    0.0765      43.1 3.07e-117
    ## # … with 1,990 more rows
…
